{
    "%vlocity_namespace%__Active__c": true,
    "%vlocity_namespace%__OmniScriptId__c": {
        "Name": "VPL-WhereYouLive",
        "VlocityDataPackType": "VlocityMatchingKeyObject",
        "VlocityMatchingRecordSourceKey": "%vlocity_namespace%__OmniScript__c/vpl/WhereYouLive/English",
        "VlocityRecordSObjectType": "%vlocity_namespace%__OmniScript__c"
    },
    "%vlocity_namespace%__ParentElementId__c": {
        "%vlocity_namespace%__OmniScriptId__c": {
            "Name": "VPL-WhereYouLive",
            "VlocityDataPackType": "VlocityMatchingKeyObject",
            "VlocityMatchingRecordSourceKey": "%vlocity_namespace%__OmniScript__c/vpl/WhereYouLive/English",
            "VlocityRecordSObjectType": "%vlocity_namespace%__OmniScript__c"
        },
        "Name": "CreditCheckWhereYouLive",
        "VlocityDataPackType": "VlocityMatchingKeyObject",
        "VlocityMatchingRecordSourceKey": "%vlocity_namespace%__Element__c/%vlocity_namespace%__OmniScript__c/vpl/WhereYouLive/English/CreditCheckWhereYouLive",
        "VlocityRecordSObjectType": "%vlocity_namespace%__Element__c"
    },
    "%vlocity_namespace%__ParentElementName__c": "CreditCheckWhereYouLive",
    "%vlocity_namespace%__ParentElementType__c": "Step",
    "%vlocity_namespace%__PropertySet__c": {
        "HTMLTemplateId": "",
        "controlWidth": 12,
        "dataType": null,
        "dateFormat": "MM-dd-yyyy",
        "disOnTplt": false,
        "expression": "IF((%CreditCheckWhereYouLive:EnterCurrentAddresManually% = true), IF(%CreditCheckWhereYouLive:MailingAddress:MailingZipCode%<>null,%CreditCheckWhereYouLive:MailingAddress:MailingZipCode%,''), IF(%CurrentAddressScenario:MailingZipCode%<>null, %CurrentAddressScenario:MailingZipCode%, ''))",
        "hide": true,
        "hideGroupSep": false,
        "inputWidth": 12,
        "label": null,
        "mask": null,
        "show": null,
        "showInputWidth": false
    },
    "%vlocity_namespace%__ReusableOmniScript__c": true,
    "%vlocity_namespace%__Type__c": "Formula",
    "Name": "CurrentAddressZipCode",
    "VlocityDataPackType": "SObject",
    "VlocityRecordSObjectType": "%vlocity_namespace%__Element__c",
    "VlocityRecordSourceKey": "%vlocity_namespace%__Element__c/%vlocity_namespace%__OmniScript__c/vpl/WhereYouLive/English/CurrentAddressZipCode"
}